…
# 현재 R콘솔 창 크기에서 볼 수 있는 만큼 10개 행, 6개 컬럼
> flights_df <- tbl_df(hflights)
> flights_df
# A tibble: 227,496 x 21
    Year Month DayofMonth DayOfWeek DepTime ArrTime
   <int> <int>      <int>     <int>   <int>   <int>
 1  2011     1          1         6    1400    1500
 2  2011     1          2         7    1401    1501
 3  2011     1          3         1    1352    1502
 4  2011     1          4         2    1403    1513
 5  2011     1          5         3    1405    1507
 6  2011     1          6         4    1359    1503
 7  2011     1          7         5    1359    1509
 8  2011     1          8         6    1355    1454
 9  2011     1          9         7    1443    1554
10  2011     1         10         1    1443    1553
# ... with 227,486 more rows, and 15 more variables:
#   UniqueCarrier <chr>, FlightNum <int>, TailNum <chr>,
#   ActualElapsedTime <int>, AirTime <int>,
#   ArrDelay <int>, DepDelay <int>, Origin <chr>,
#   Dest <chr>, Distance <int>, TaxiIn <int>,
#   TaxiOut <int>, Cancelled <int>,
#   CancellationCode <chr>, Diverted <int>


# 문> hflights 데이터셋으로부터 1월 2일의 모든 비행기의 이착륙 정보 추출
> jan2 <- flights_df %>% filter(Month==1 & DayofMonth==2)
> print(jan2)
# A tibble: 678 x 21
    Year Month DayofMonth DayOfWeek DepTime ArrTime
   <int> <int>      <int>     <int>   <int>   <int>
 1  2011     1          2         7    1401    1501
 2  2011     1          2         7     719     821
 3  2011     1          2         7    1959    2106
 4  2011     1          2         7    1636    1759
 5  2011     1          2         7    1823    2132
 6  2011     1          2         7    1008    1321
 7  2011     1          2         7    1200    1303
 8  2011     1          2         7     907    1018
 9  2011     1          2         7     554     912
10  2011     1          2         7    1823    2103
# ... with 668 more rows, and 15 more variables:
#   UniqueCarrier <chr>, FlightNum <int>, TailNum <chr>,
#   ActualElapsedTime <int>, AirTime <int>, ArrDelay <int>,
#   DepDelay <int>, Origin <chr>, Dest <chr>, Distance <int>,
#   TaxiIn <int>, TaxiOut <int>, Cancelled <int>,
#   CancellationCode <chr>, Diverted <int>



# 문> hflights데이터셋을 년, 월, 출발시간, 도착시간순으로 오름차순 정렬
> asc_flights <- flights_df %>% arrange(Year, Month, DepTime, ArrTime)
> print(asc_flights)
# A tibble: 227,496 x 21
    Year Month DayofMonth DayOfWeek DepTime ArrTime
   <int> <int>      <int>     <int>   <int>   <int>
 1  2011     1          1         6       1     621
 2  2011     1         21         5       4      46
 3  2011     1          4         2       5      59
 4  2011     1         27         4      11     216
 5  2011     1         27         4      17     240
 6  2011     1          9         7      22     117
 7  2011     1         28         5     226     310
 8  2011     1         18         2     537     829
 9  2011     1         25         2     538     824
10  2011     1          7         5     538     832
# ... with 227,486 more rows, and 15 more variables:
#   UniqueCarrier <chr>, FlightNum <int>, TailNum <chr>,
#   ActualElapsedTime <int>, AirTime <int>, ArrDelay <int>,
#   DepDelay <int>, Origin <chr>, Dest <chr>,
#   Distance <int>, TaxiIn <int>, TaxiOut <int>,
#   Cancelled <int>, CancellationCode <chr>, Diverted <int>



# 문> hflights데이터셋을 년(오름차순), 월(오름차순), 출발시간(내림차순), 도착시간(오름차순) 정렬
> depdesc_flights <- flights_df %>% arrange(Year, Month, desc(DepTime), ArrTime)
> print(depdesc_flights)
# A tibble: 227,496 x 21
    Year Month DayofMonth DayOfWeek DepTime ArrTime
   <int> <int>      <int>     <int>   <int>   <int>
 1  2011     1          2         7    2335      32
 2  2011     1          2         7    2334     121
 3  2011     1         27         4    2329      14
 4  2011     1          6         4    2325      10
 5  2011     1         20         4    2325      17
 6  2011     1          3         1    2321     110
 7  2011     1         17         1    2315       8
 8  2011     1         14         5    2315      20
 9  2011     1         27         4    2315    2355
10  2011     1         27         4    2313       3
# ... with 227,486 more rows, and 15 more variables:
#   UniqueCarrier <chr>, FlightNum <int>, TailNum <chr>,
#   ActualElapsedTime <int>, AirTime <int>,
#   ArrDelay <int>, DepDelay <int>, Origin <chr>,
#   Dest <chr>, Distance <int>, TaxiIn <int>,
#   TaxiOut <int>, Cancelled <int>,
#   CancellationCode <chr>, Diverted <int>


# 문> hflights데이터셋으로부터 년, 월, 출발시간, 도착시간 컬럼만 검색
> columns4 <- flights_df %>% select(Year, Month, DepTime, ArrTime)
> print(columns4)
# A tibble: 227,496 x 4
    Year Month DepTime ArrTime
   <int> <int>   <int>   <int>
 1  2011     1    1400    1500
 2  2011     1    1401    1501
 3  2011     1    1352    1502
 4  2011     1    1403    1513
 5  2011     1    1405    1507
 6  2011     1    1359    1503
 7  2011     1    1359    1509
 8  2011     1    1355    1454
 9  2011     1    1443    1554
10  2011     1    1443    1553
# ... with 227,486 more rows


# 문> hflights데이터셋으로부터 출발지연시간과 도착지연시간과의 차이를 계산한 컬럼 추가
> delay_diff <- flights_df %>% mutate(delaydiff = DepDelay - ArrDelay)
> delay_diff_select <- delay_diff %>% select(delaydiff)
> print(delay_diff_select)
# A tibble: 227,496 x 1
   delaydiff
       <int>
 1        10
 2        10
 3         0
 4         0
 5         8
 6         6
 7         0
 8        11
 9        -1
10         0
# ... with 227,486 more rows
…
# 어떤 회사에서 "compact"(경차) 차종을 가장 많이 생산하는지 알아보려고 한다. 각 회사별로 "compact" 차종을 내림차순으로 정렬해 출력하라
> cars2 <- mpg %>% filter(class=="compact") %>% group_by(manufacturer) %>% mutate(count=n()) %>% arrange(desc(count))
> print(cars2)
# A tibble: 47 x 12
# Groups:   manufacturer [5]
   manufacturer model displ  year   cyl trans drv  
   <chr>        <chr> <dbl> <int> <int> <chr> <chr>
 1 audi         a4      1.8  1999     4 auto~ f    
 2 audi         a4      1.8  1999     4 manu~ f    
 3 audi         a4      2    2008     4 manu~ f    
 4 audi         a4      2    2008     4 auto~ f    
 5 audi         a4      2.8  1999     6 auto~ f    
 6 audi         a4      2.8  1999     6 manu~ f    
 7 audi         a4      3.1  2008     6 auto~ f    
 8 audi         a4 q~   1.8  1999     4 manu~ 4    
 9 audi         a4 q~   1.8  1999     4 auto~ 4    
10 audi         a4 q~   2    2008     4 manu~ 4    
# ... with 37 more rows, and 5 more variables:
#   cty <int>, hwy <int>, fl <chr>, class <chr>,
#   count <int>
```
…
